…
``` r
trash_wheel_df = 
  read_excel("./data/Trash-Wheel-Collection-Totals-7-2020-2.xlsx", 
                          sheet = "Mr. Trash Wheel", 
                          range = cell_cols("A:N")) %>% 
  janitor::clean_names() %>% 
  drop_na(dumpster) %>%
  mutate(sports_balls = round(sports_balls, digits = 0))

trash_wheel_df
```

    ## # A tibble: 454 x 14
    ##   dumpster month  year date                weight_tons volume_cubic_yards
    ##   <chr>    <chr> <dbl> <dttm>                    <dbl>              <dbl>
    ## 1 1        May    2014 2014-05-16 00:00:00        4.31                 18
    ## 2 2        May    2014 2014-05-16 00:00:00        2.74                 13
    ## 3 3        May    2014 2014-05-16 00:00:00        3.45                 15
    ## 4 4        May    2014 2014-05-17 00:00:00        3.1                  15
    ## 5 5        May    2014 2014-05-17 00:00:00        4.06                 18
    ## # … with 449 more rows, and 8 more variables: plastic_bottles <dbl>,
    ## #   polystyrene <dbl>, cigarette_butts <dbl>, glass_bottles <dbl>,
    ## #   grocery_bags <dbl>, chip_bags <dbl>, sports_balls <dbl>,
    ## #   homes_powered <dbl>
…
Combine precipitation data sets and convert month (from numeric) to a
character variable.

``` r
precip_combined =
  bind_rows(precip_2018, precip_2019) %>% 
  mutate(month = month.name[month])

precip_combined
```

    ## # A tibble: 24 x 3
    ##   month    total  year
    ##   <chr>    <dbl> <dbl>
    ## 1 January   0.94  2018
    ## 2 February  4.8   2018
    ## 3 March     2.69  2018
    ## 4 April     4.69  2018
    ## 5 May       9.27  2018
    ## # … with 19 more rows
…
``` r
pols_df =
  read_csv("./data/fivethirtyeight_datasets/pols-month.csv") %>% 
  separate(mon, c('year', 'month', 'day'), sep = "-", convert = TRUE) %>%
  mutate(month = str_to_lower(month.abb[month])) %>% 
  mutate(president = ifelse(prez_dem == 1, "dem", "gop")) %>% 
  select(-prez_dem, -prez_gop, -day)

pols_df
```

    ## # A tibble: 822 x 9
    ##    year month gov_gop sen_gop rep_gop gov_dem sen_dem rep_dem president
    ##   <int> <chr>   <dbl>   <dbl>   <dbl>   <dbl>   <dbl>   <dbl> <chr>    
    ## 1  1947 jan        23      51     253      23      45     198 dem      
    ## 2  1947 feb        23      51     253      23      45     198 dem      
    ## 3  1947 mar        23      51     253      23      45     198 dem      
    ## 4  1947 apr        23      51     253      23      45     198 dem      
    ## 5  1947 may        23      51     253      23      45     198 dem      
    ## # … with 817 more rows
…
``` r
stock_df =
  read_csv("./data/fivethirtyeight_datasets/snp.csv") %>% 
  separate(date, c('month', 'day', 'year'), sep = "/", convert = TRUE) %>%
  mutate(
    year = ifelse(year <= 15, year + 2000, year + 1900), 
    month = str_to_lower(month.abb[month])) %>% 
  arrange(year, month) %>%
  select(year, month, close)

stock_df
```

    ## # A tibble: 787 x 3
    ##    year month close
    ##   <dbl> <chr> <dbl>
    ## 1  1950 apr    18.0
    ## 2  1950 aug    18.4
    ## 3  1950 dec    20.4
    ## 4  1950 feb    17.2
    ## 5  1950 jan    17.0
    ## # … with 782 more rows
…
``` r
unemploy_df =
  read_csv("./data/fivethirtyeight_datasets/unemployment.csv") %>% 
  janitor::clean_names() %>%
  pivot_longer(
    jan:dec,
    names_to = "month",
    values_to = "unemploy"
  )

unemploy_df
```

    ## # A tibble: 816 x 3
    ##    year month unemploy
    ##   <dbl> <chr>    <dbl>
    ## 1  1948 jan        3.4
    ## 2  1948 feb        3.8
    ## 3  1948 mar        4  
    ## 4  1948 apr        3.9
    ## 5  1948 may        3.5
    ## # … with 811 more rows
…
baby_names_df
```

    ## # A tibble: 12,181 x 6
    ##   year_of_birth gender ethnicity                  childs_first_name count  rank
    ##           <int> <chr>  <chr>                      <chr>             <int> <int>
    ## 1          2016 female asian and pacific islander olivia              172     1
    ## 2          2016 female asian and pacific islander chloe               112     2
    ## 3          2016 female asian and pacific islander sophia              104     3
    ## 4          2016 female asian and pacific islander emily                99     4
    ## 5          2016 female asian and pacific islander emma                 99     4
    ## # … with 12,176 more rows
…
